{
  "id": "consumelocationpoc",
  "cmd": null,
  "cpus": 0.5,
  "mem": 1024,
  "disk": 0,
  "instances": 1,
  "container": {
    "docker": {
      "image": "samdelamarter/consumelocationpoc:0.0.2",
      "network": "BRIDGE",
      "parameters": [],
      "portMappings": [
        {
          "containerPort": 8080,
          "protocol": "tcp",
          "name": null
        }
      ]
    },
    "type": "DOCKER",
    "volumes": []
  },
  "env": {},
  "labels": {
    "HAPROXY_GROUP": "external",
    "HAPROXY_0_VHOST": "http://elusiveappsagents.eastus.cloudapp.azure.com/"
  },
  "healthChecks": [
    {
      "protocol": "HTTP",
      "path": "/",
      "portIndex": 0,
      "gracePeriodSeconds": 300,
      "intervalSeconds": 60,
      "timeoutSeconds": 20,
      "maxConsecutiveFailures": 3
    }
  ]
}
